…
## Examples

``` r
if (FALSE) { # \dontrun{
fram_dataframe |> filter_coast()
} # }
framrosetta::fishery_chinook_fram |> filter_coast(species = "CHINOOK")
#> # A tibble: 35 × 5
#>    species version_number fishery_id fishery_name fishery_title        
#>    <chr>            <int>      <int> <chr>        <chr>                
#>  1 CHINOOK              1          1 SEAK Troll   SE Alaska Troll      
#>  2 CHINOOK              1          2 SEAK Net     SE Alaska Net        
#>  3 CHINOOK              1          3 SEAK Sport   SE Alaska Sport      
#>  4 CHINOOK              1          4 N/C BC Net   BC No/Cent Net       
#>  5 CHINOOK              1          5 WCVI Net     BC WCVI Net          
#>  6 CHINOOK              1          6 GeoStr Net   BC Georgia Strait Net
#>  7 CHINOOK              1          7 BC JDF Net   BC JDF Net           
#>  8 CHINOOK              1          8 BCOutSport   BC Outside Sport     
#>  9 CHINOOK              1          9 N/C BC Trl   BC No/Cent Troll     
#> 10 CHINOOK              1         10 WCVI Troll   BC WCVI Troll        
#> # ℹ 25 more rows
framrosetta::fishery_coho_fram |> filter_coast(species = "COHO")
#> # A tibble: 65 × 5
#>    species version_number fishery_id fishery_name fishery_title              
#>    <chr>            <int>      <int> <chr>        <chr>                      
#>  1 COHO                 1          1 No Cal Trm   No Calif Cst Terminal Catch
#>  2 COHO                 1          2 Cn Cal Trm   Cntrl Cal Cst Term Catch   
#>  3 COHO                 1          3 Ft Brg Spt   Fort Bragg Sport           
#>  4 COHO                 1          4 Ft Brg Trl   Fort Bragg Troll           
#>  5 COHO                 1          5 Ca KMZ Spt   KMZ Sport                  
#>  6 COHO                 1          6 Ca KMZ Trl   KMZ Troll                  
#>  7 COHO                 1          7 So Cal Spt   So Calif. Sport            
#>  8 COHO                 1          8 So Cal Trl   So Calif. Troll            
#>  9 COHO                 1          9 So Ore Trm   So Ore Coast Terminal Catch
#> 10 COHO                 1         10 Or Prv Trm   Ore Private Hat Term Catch 
#> # ℹ 55 more rows
```
